Squared_Root/simulation/qsim/SquaredRoot.msim.vcd
$comment
	File created using the following command:
		vcd file SquaredRoot.msim.vcd -direction
$end
$date
	Tue Oct 31 23:49:10 2023
$end
$version
	ModelSim Version 10.1d
$end
$timescale
	1ps
$end
$scope module AU2_pipeline_vlg_vec_tst $end
$var reg 5 ! InA [4:0] $end
$var reg 5 " InB [4:0] $end
$var reg 2 # op [1:0] $end
$var wire 1 $ out [4] $end
$var wire 1 % out [3] $end
$var wire 1 & out [2] $end
$var wire 1 ' out [1] $end
$var wire 1 ( out [0] $end
$var wire 1 ) sampler $end
$scope module i1 $end
$var wire 1 * gnd $end
$var wire 1 + vcc $end
$var wire 1 , unknown $end
$var tri1 1 - devclrn $end
$var tri1 1 . devpor $end
$var tri1 1 / devoe $end
$var wire 1 0 max|sub|fa0|a3|t2~combout $end
$var wire 1 1 max|sub|fa0|a1|t2~combout $end
$var wire 1 2 add|b1~6_combout $end
$var wire 1 3 add|a2|cout~0_combout $end
$var wire 1 4 max|b4~0_combout $end
$var wire 1 5 max|sub|fa0|a2|t2~combout $end
$var wire 1 6 max|sub|fa1|a3|cout~0_combout $end
$var wire 1 7 max|sub|fa1|a4|s~combout $end
$var wire 1 8 add|b0~1_combout $end
$var wire 1 9 add|b0~2_combout $end
$var wire 1 : add|b0~3_combout $end
$var wire 1 ; add|b1~5_combout $end
$var wire 1 < add|b1~7_combout $end
$var wire 1 = add|b1~3_combout $end
$var wire 1 > add|b1~4_combout $end
$var wire 1 ? add|b1~8_combout $end
$var wire 1 @ max|b2~0_combout $end
$var wire 1 A add|a4|s~0_combout $end
$var wire 1 B max|mux|mux2|u3~0_combout $end
$var wire 1 C max|mux|mux2|u3~1_combout $end
$var wire 1 D add|a1|cout~0_combout $end
$var wire 1 E max|sub|fa1|a1|cout~0_combout $end
$var wire 1 F add|b2~1_combout $end
$var wire 1 G add|b2~2_combout $end
$var wire 1 H add|b2~3_combout $end
$var wire 1 I max|sub|fa1|a2|cout~0_combout $end
$var wire 1 J add|b3~1_combout $end
$var wire 1 K add|b3~2_combout $end
$var wire 1 L max|mux|mux3|u3~0_combout $end
$var wire 1 M max|mux|mux3|u3~1_combout $end
$var wire 1 N add|b3~3_combout $end
$var wire 1 O add|a4|s~combout $end
$var wire 1 P add|b4~1_combout $end
$var wire 1 Q add|b4~2_combout $end
$var wire 1 R InB~combout [4] $end
$var wire 1 S InB~combout [3] $end
$var wire 1 T InB~combout [2] $end
$var wire 1 U InB~combout [1] $end
$var wire 1 V InB~combout [0] $end
$var wire 1 W InA~combout [4] $end
$var wire 1 X InA~combout [3] $end
$var wire 1 Y InA~combout [2] $end
$var wire 1 Z InA~combout [1] $end
$var wire 1 [ InA~combout [0] $end
$var wire 1 \ op~combout [1] $end
$var wire 1 ] op~combout [0] $end
$upscope $end
$upscope $end
$enddefinitions $end
#0
$dumpvars
b10111 !
b1000 "
b0 #
1(
1'
1&
1%
1$
x)
0*
1+
x,
1-
1.
1/
10
01
02
03
14
05
06
07
18
19
1:
1;
0<
0=
0>
1?
0@
1A
0B
1C
0D
0E
0F
1G
1H
0I
0J
1K
0L
0M
1N
1O
1P
1Q
0V
0U
0T
1S
0R
1[
1Z
1Y
0X
1W
0]
0\
$end
#30000
b1 #
b111 !
b1111 !
b1011 !
b11000 "
1R
0Y
1X
0W
1]
0)
04
0G
0C
0O
1M
0K
16
0Q
12
0H
0N
0M
1L
17
14
0$
1Q
1>
0;
0&
0%
1$
#60000
b11 #
b1001 !
b1000 !
b10000 "
b10100 "
b10101 "
b10 #
b0 !
b100 !
1V
1T
0S
0[
0Z
1Y
0X
0]
1\
1)
15
02
11
1I
1G
1B
13
1O
0L
1K
06
0>
1@
1J
16
1<
0I
1H
1C
0B
07
04
0?
0C
1B
17
14
06
08
0P
1&
0'
0Q
18
1P
1C
0B
07
04
09
19
1Q
08
0P
0$
0(
09
0Q
1(
1$
0(
0$
#90000
b110 !
b111 !
b11101 "
b11 #
1]
1S
1[
1Z
0)
1P
1F
0@
0:
19
12
0O
1E
1D
18
1;
1Q
1N
1?
1I
0F
z$
z%
z&
z'
z(
0J
#120000
b11111 "
b1 #
b11011 "
b11010 "
b1111 !
b1011 !
b10010 "
b0 #
0Y
1X
0]
0\
0V
1U
0T
0S
1)
0G
0C
03
1M
16
0P
1J
1F
1:
02
0<
1>
0H
1O
0J
0M
17
14
0Q
0K
1G
0?
1$
1%
1&
1'
1(
1P
1K
0N
1H
0&
0$
0'
1Q
1N
0%
1&
1$
1%
#150000
b1010 !
b10000 "
b10001 "
b11001 "
b1 #
1]
1V
0U
1S
0[
0)
0F
1=
12
0D
0;
0O
1L
0K
0G
0>
1?
0N
0H
0?
1'
0%
0&
0'
#180000
b1001 "
b11 #
b1101 "
b1110 !
b1111 "
b111 "
b10 #
1Y
0]
1\
1U
1T
0S
0R
1)
1G
13
1@
0=
02
1K
0E
1D
1;
1B
1O
0L
0A
07
04
1H
1J
1>
1<
0I
1F
1?
0P
1M
1C
0B
08
0Q
1N
09
1&
1'
0$
1%
0(
#210000
b1111 !
b10111 "
b10011 "
b10001 "
b11 #
1]
0U
0T
1R
1[
0)
1P
0@
0:
19
12
1E
0>
1I
1A
17
14
18
1Q
0F
0J
0O
0M
0C
1>
0;
z$
z%
z&
z'
z(
0<
#240000
b11111 !
b11101 !
b10000 "
b1 #
b11000 "
b11100 !
b11100 "
b0 #
0]
0\
0V
1T
1S
0[
0Z
1W
1)
0P
1J
1F
1:
02
0K
0G
08
0E
0D
01
1B
1L
0>
0A
07
0Q
1K
1G
0?
0N
0H
09
0F
1O
1M
0L
1C
0B
1$
1%
1&
1'
1(
1N
1H
0G
1P
0$
0'
0%
0&
0(
0H
1Q
1%
1&
0&
1$
#270000
b1100 "
b1110 "
b1100 !
b1110 !
b110 "
b1111 !
b10 "
b1 #
1]
1[
1Z
0W
1U
0T
0S
0R
0)
0Q
0J
12
1E
1D
18
1>
1;
04
11
0I
1G
03
0K
1K
1I
13
19
1J
1H
0O
0N
0$
1N
0J
1O
0K
1(
1&
0%
1K
0N
1%
1N
0%
1%
#300000
b111 !
b11 !
b11 #
b10010 "
b10000 "
b10011 !
b10001 !
b10000 !
b10 #
0U
1R
0]
1\
0[
0Z
0Y
0X
1W
1)
0E
0D
0>
0;
05
01
00
14
1Q
0P
1J
1F
1@
02
1<
08
0C
03
0O
0M
0I
0F
0J
06
17
1P
0Q
0N
0H
09
1$
07
1Q
0$
0%
0&
0(
1$
#330000
b11000 "
b11000 !
b11100 !
b1100 !
b11 #
1]
1Y
1X
0W
1S
0)
0@
0:
19
1C
1O
1M
16
1A
17
10
1N
1H
1?
0M
1L
0C
0O
z$
z%
z&
z'
z(
#360000
b1 #
b11010 "
b1110 !
b110 !
b10 !
b10010 !
b0 #
1Z
0Y
0X
1W
1U
0]
0\
1)
1E
1D
1>
1;
0G
1O
06
0A
07
15
11
0P
1:
09
0<
1I
1F
0?
0H
1P
17
0O
0Q
1$
1%
1&
1'
0(
1G
1Q
0P
0'
0&
0$
1H
0Q
1$
1&
0$
#390000
b11010 !
b11110 !
b1110 !
b1 #
1]
1Y
1X
0W
0)
1P
0F
0G
13
1O
0K
16
1A
07
04
1G
0H
0O
0N
17
14
1H
1Q
0&
0%
1&
1$
#420000
b11011 "
b1111 !
b10011 "
b11 #
b10001 "
b1101 !
b101 !
b1 !
b10001 !
b10 #
0]
1\
1[
0Z
0Y
0X
1W
1V
0U
0S
1)
1J
1F
1@
1=
1K
1<
18
0D
0>
0;
03
1O
0A
07
0L
0H
1>
19
0F
0O
0J
0&
1(
#450000
b10101 "
b10000 !
b10010 !
b11010 !
b11 #
1]
0[
1Z
1X
1T
0)
0@
0:
12
08
1;
1M
0I
1N
1H
1?
1J
z$
z%
z&
z'
z(
#480000
b11101 "
b1 #
b11111 "
b11110 !
b11100 !
b10100 !
b0 #
0Z
1Y
0X
0]
0\
1U
1S
1)
0E
0>
0;
1I
0G
1C
13
0M
0K
06
0P
0J
0=
1:
09
02
0<
18
0I
0?
1J
0H
1O
0N
1L
0C
1B
17
0Q
1K
1>
19
1$
1%
1&
1'
0(
0K
1P
1N
0>
1;
1?
0'
0&
0%
0$
1(
0N
1Q
1%
1'
0%
1$
#510000
b1111 "
b1110 "
b100 !
b101 !
b1 !
b11 !
b1011 !
b1 #
1]
1[
1Z
0Y
1X
0W
0V
0R
0)
1F
12
1E
1D
1>
1G
03
1K
04
0G
0F
13
0?
1H
1N
0H
1G
0'
1&
1%
1H
0&
1&
#540000
b1010 "
b11 #
b1011 "
b1010 !
b10 !
b10 #
0[
0X
0]
1\
1V
0T
1)
0E
02
0P
1F
1@
1<
1I
0B
03
0I
0Q
0H
1?
0J
0O
0$
0&
1'
#570000
b1001 "
b10010 !
b10110 !
b10100 !
b1101 "
b1100 "
b11100 !
b11 #
1]
0Z
1Y
1X
1W
0V
0U
1T
0)
1P
1J
0@
0:
0D
0>
0;
13
1O
1A
07
14
08
01
1B
1Q
1H
0F
0O
1M
0L
1C
0B
1I
z$
z%
z&
z'
z(
0J
16
0M
1L
0C
1B
17
04
#600000
b100 "
b1 #
b11101 !
b110 "
b11001 !
b111 "
b0 #
1[
0Y
0]
0\
1V
1U
0S
1)
1D
1=
0I
03
0P
1J
1:
09
0<
11
1;
0L
1F
13
1>
0J
1O
0Q
0K
1$
1%
1&
1'
0(
0G
0O
1J
0?
1K
1P
0N
0$
0H
0P
0K
1N
1Q
0'
0%
0Q
0N
0&
1%
1$
0$
0%
#630000
b11011 !
b11 "
b10011 !
b10010 !
b1 #
1]
0T
0[
1Z
0X
0)
1P
12
1G
0B
03
18
0>
1O
1K
06
1Q
1H
19
1?
1N
07
14
0Q
1$
1&
1(
1'
1%
0$
#660000
b10011 "
b10 !
b11 #
b110 !
b10010 "
b100 !
b10110 "
b10 #
0]
1\
0Z
1Y
0W
0V
1T
1R
1)
1Q
0J
1@
0=
02
1<
08
0D
0;
1C
13
04
0N
1>
0?
09
0F
1J
0P
1$
0Q
0%
0'
0(
0$
#690000
b11 #
1]
0)
1P
1F
0@
0:
19
1Q
1N
1?
z$
z%
z&
z'
z(
#720000
b11110 "
b1 #
b11111 "
b11011 "
b0 #
0]
0\
1V
0T
1S
1)
0F
1:
09
0K
0G
0<
18
1I
03
0O
1G
0N
0H
19
0J
1O
0P
1$
1%
1&
1'
0(
1H
1K
1P
0Q
0%
0&
1(
1N
1Q
1&
0$
1%
1$
#750000
b11001 "
b101 !
b1001 "
b10101 !
b10001 !
b10011 !
b1 #
1]
1[
1Z
0Y
1W
0U
0R
0)
0Q
1F
12
1E
1D
08
0>
1;
0I
0G
0C
14
1G
1I
0F
09
1J
0H
0$
1H
0J
0G
0K
0(
0&
1K
0H
0N
1&
1N
0&
0%
1%
#780000
b11011 !
b1 "
b11 #
b0 "
b100 "
b110 "
b10110 "
b11111 !
b10 #
0]
1\
0V
1U
1T
0S
1R
1Y
1X
1)
1Q
1F
1@
02
1G
1<
18
1>
13
16
0A
17
1C
1M
1H
19
1J
07
08
1$
18
09
1&
1(
19
0(
1(
#810000
b10100 "
b11011 !
b11 #
1]
0Y
0U
0)
0J
0F
0@
0:
12
0I
0C
0E
0D
0>
01
1J
03
z$
z%
z&
z'
z(
0O
#840000
b1011 !
b1001 !
b1 #
b10101 "
b10001 "
b1 "
b11 "
b0 #
1V
1U
0T
0R
0]
0\
0Z
0W
1)
1D
1=
08
02
11
1>
0;
0G
04
0P
0J
1:
0K
0<
1F
0>
09
0H
0Q
1K
0N
1$
1%
1&
1'
1(
1G
0?
1N
0(
0&
0$
0%
1H
0'
1%
1&
#870000
b1011 !
b10 "
b110 "
b100 "
b1 #
1]
0V
0U
1T
1Z
0)
1P
1J
0=
12
0D
18
01
1>
1;
0G
13
0K
0>
0F
03
19
0H
1O
0N
1?
1G
0O
1(
0&
1H
0%
1'
1&
#900000
b1111 !
b11 #
b10100 "
b10101 "
b10111 "
b10 #
1V
1U
1R
0]
1\
1Y
1)
1E
1D
1=
02
11
1>
1A
17
14
1Q
0P
0J
1@
1K
1<
1I
1C
13
1F
0>
0M
0C
1B
0Q
1P
1N
1J
1$
0N
1Q
0$
1%
0%
1$
#930000
b1110 !
b1010 !
b111 "
b101 "
b11 #
1]
0U
0R
0[
0Y
0)
0J
0F
0@
0:
12
0D
0;
0A
07
04
0I
1N
0<
03
1O
1M
0B
1>
1;
08
1J
z$
z%
z&
z'
z(
0O
1<
#960000
b10 !
b1101 "
b10010 !
b1 #
b10110 !
b11101 "
b0 #
0]
0\
1S
1R
1Y
0X
1W
1)
0P
0J
0=
1:
09
02
0K
0G
0<
18
06
14
1I
1C
13
0M
0Q
1K
0>
0?
0N
0H
19
1L
0C
1B
17
1J
1O
1$
1%
1&
1'
0(
1N
1?
1>
0;
0K
1P
0$
0'
0%
0&
1(
0N
1Q
1%
1'
0%
1$
#990000
b10100 !
b11100 !
b10101 "
b101 "
b1 #
1]
0S
0R
0Z
1X
0)
0J
1=
12
0L
16
1A
07
0E
0>
1K
1>
17
04
0O
0Q
0I
1F
0?
1N
1?
1Q
1J
1G
0$
0'
0K
1H
1%
1'
1$
0N
1&
0%
