LAB06/simulation/qsim/LAB06.msim.vcd
$comment
	File created using the following command:
		vcd file LAB06.msim.vcd -direction
$end
$date
	Sun Jan 07 21:48:46 2024
$end
$version
	ModelSim Version 10.1d
$end
$timescale
	1ps
$end
$scope module test_vlg_vec_tst $end
$var reg 4 ! A [3:0] $end
$var reg 4 " B [3:0] $end
$var reg 1 # Cin $end
$var wire 1 $ Cout $end
$var wire 1 % Sum [3] $end
$var wire 1 & Sum [2] $end
$var wire 1 ' Sum [1] $end
$var wire 1 ( Sum [0] $end
$var wire 1 ) sampler $end
$scope module i1 $end
$var wire 1 * gnd $end
$var wire 1 + vcc $end
$var wire 1 , unknown $end
$var tri1 1 - devclrn $end
$var tri1 1 . devpor $end
$var tri1 1 / devoe $end
$var wire 1 0 Cin~combout $end
$var wire 1 1 Add0~1_cout $end
$var wire 1 2 Add0~2_combout $end
$var wire 1 3 Add0~3 $end
$var wire 1 4 Add0~4_combout $end
$var wire 1 5 Add0~5 $end
$var wire 1 6 Add0~6_combout $end
$var wire 1 7 Add0~7 $end
$var wire 1 8 Add0~8_combout $end
$var wire 1 9 Add0~9 $end
$var wire 1 : Add0~10_combout $end
$var wire 1 ; B~combout [3] $end
$var wire 1 < B~combout [2] $end
$var wire 1 = B~combout [1] $end
$var wire 1 > B~combout [0] $end
$var wire 1 ? A~combout [3] $end
$var wire 1 @ A~combout [2] $end
$var wire 1 A A~combout [1] $end
$var wire 1 B A~combout [0] $end
$upscope $end
$upscope $end
$enddefinitions $end
#0
$dumpvars
b1111 !
b1000 "
0#
1$
1(
1'
1&
0%
x)
0*
1+
x,
1-
1.
1/
00
01
12
13
14
05
16
17
08
19
1:
0>
0=
0<
1;
1B
1A
1@
1?
$end
#10000
b1011 !
b0 "
b1 "
1>
0;
0@
0)
03
02
09
18
06
15
04
0:
0(
1%
0&
16
0'
0$
1&
#20000
b11 !
b10 !
b1001 "
1;
0B
0?
1)
13
12
05
14
1(
06
1'
0&
#30000
b0 !
b1101 "
b1 !
b101 "
1<
0;
1B
0A
0)
16
08
03
02
04
14
1&
0%
0(
0'
1'
#40000
b1001 !
b1011 !
b1010 !
0B
1A
1?
1)
13
12
15
04
18
05
14
07
06
1(
0'
1%
17
16
19
08
1'
0&
09
18
1:
1&
0%
0:
1%
1$
0$
#50000
b111 "
b110 "
b10 "
b1010 "
b10 !
b11 !
1B
0?
0>
1=
0<
1;
0)
15
04
06
16
0'
0&
1&
#60000
b1000 "
b1001 "
b1101 "
b101 "
1>
0=
1<
0;
1)
03
02
05
14
07
06
08
15
04
17
16
18
0(
1'
0&
0%
07
06
08
0'
1&
1%
18
0&
0%
1%
#70000
b1 !
b1001 !
b1000 !
b100 "
b1100 "
0>
1;
0B
0A
1?
0)
13
19
05
14
04
1:
17
16
1'
08
0'
1$
1&
0%
#80000
b1000 "
b0 !
0?
0<
1)
09
18
06
0:
1%
0&
0$
#90000
b100 !
b1010 "
b101 !
b1011 "
b11 "
b111 "
1>
1=
1<
0;
1B
1@
0)
03
14
07
08
15
04
18
1'
0%
16
0'
1%
1&
#100000
b111 !
b1111 !
b1011 !
b1010 !
0B
1A
0@
1?
1)
13
12
14
06
19
08
04
1:
1(
1'
0&
0%
0'
1$
#110000
b1111 "
b1011 "
b1011 !
1B
0<
1;
0)
03
02
17
16
18
14
08
0(
1&
1%
1'
0%
#120000
b1010 "
b1111 !
b10 "
b110 "
1@
0>
1<
0;
1)
07
13
12
09
18
19
08
04
0:
1(
1%
1:
0%
0'
0$
1$
#130000
b100 "
b111 !
b110 !
b10 !
b1100 "
b1000 "
0B
0@
0?
0=
0<
1;
0)
02
17
05
14
09
18
06
0(
1'
0:
1%
0&
0$
#140000
b0 !
b1001 "
b1 !
1>
1B
0A
1)
03
04
14
0'
1'
#150000
b101 !
b111 !
b1000 "
b110 !
0>
0B
1A
1@
0)
13
15
04
16
05
14
07
06
0'
1&
17
16
19
08
1'
0&
09
18
1:
1&
0%
0:
1%
1$
0$
#160000
b1110 !
b1100 "
b1010 !
b1011 !
1<
1B
0@
1?
1)
12
19
08
1:
1(
0%
1$
#170000
b1110 "
b110 "
b1001 !
b111 "
b1 !
b11 "
0A
0?
1>
1=
0<
0;
0)
09
03
02
06
0:
15
04
0(
0&
16
0$
0'
1&
#180000
b0 !
b1 "
b0 "
b1000 !
0>
0=
0B
1?
1)
13
05
14
18
04
06
1'
1%
0'
0&
#190000
b1010 !
b100 "
b101 "
1>
1<
1A
0)
12
16
14
1(
1&
1'
#200000
b1000 !
0A
1)
04
0'
#210000
b1100 !
b1101 "
b1111 "
b100 !
b1110 "
b110 !
0>
1=
1;
1A
1@
0?
0)
02
15
07
06
16
19
08
0(
0&
1:
1&
0%
1$
#220000
b1010 "
b10 !
b10 "
b1010 !
b11 "
0@
1?
1>
0<
0;
1)
17
12
09
18
1(
0:
1%
0$
#230000
b1000 !
b0 !
0A
0?
0)
05
14
08
06
1'
0%
0&
#240000
b1 !
b1011 "
b1010 "
b11 !
b1011 !
0>
1;
1B
1A
1?
1)
19
15
04
1:
16
0'
1$
1&
#250000
b1110 "
b1111 !
b110 "
b111 "
b111 !
1@
0?
1>
1<
0;
0)
07
09
03
02
18
0:
14
0(
1%
0$
1'
#260000
b101 !
b1 !
b110 "
0>
0A
0@
1)
13
12
04
06
05
14
1(
0'
0&
17
16
1'
08
1&
0%
#270000
b1110 "
b1001 !
b1111 "
1?
1>
1;
0)
19
03
02
1:
15
04
0(
07
06
1$
0'
18
0&
1%
#280000
b1101 "
b1001 "
b1011 !
b1111 !
b1 "
b111 !
b0 "
1A
1@
0?
0>
0=
0<
0;
1)
09
13
12
0:
05
14
1(
17
16
0$
1'
08
1&
0%
#290000
b110 !
b10 "
b110 "
b100 !
b111 "
1>
1=
1<
0B
0A
0)
07
06
18
0&
1%
#300000
b0 !
b1111 "
b1 !
b1011 "
0<
1;
1B
0@
1)
17
19
08
03
02
09
18
1:
15
04
0%
0(
0:
16
1%
1$
0'
0$
1&
#310000
b1001 "
b11 !
b1 "
1A
0=
0;
0)
08
0%
#320000
b0 "
b100 "
b110 "
b1110 "
0>
1=
1<
1;
1)
13
12
14
07
06
18
04
19
08
1(
1'
0&
1%
1:
0'
0%
1$
#330000
b1010 "
0<
0)
17
16
09
18
1&
0:
1%
0$
#340000
b1011 !
b1111 !
b1110 !
b1011 "
b1111 "
1>
1<
0B
1@
1?
1)
07
19
08
18
1:
0%
1%
1$
#350000
b1101 "
b101 "
b110 !
b10 !
b100 "
b0 "
0@
0?
0>
0=
0<
0;
0)
17
09
02
05
14
08
0:
06
0(
1'
0%
0$
0&
#360000
b11 !
b10 "
b1010 "
b1011 !
b1111 !
1=
1;
1B
1@
1?
1)
15
04
19
12
16
07
06
1:
0'
1(
1&
18
0&
1$
1%
#370000
b1110 "
b1110 !
0B
1<
0)
02
16
0(
1&
#380000
b110 "
b110 !
b10 "
0?
0<
0;
1)
09
06
0:
0&
0$
#390000
b100 !
0A
0)
05
14
17
16
1'
08
1&
0%
#400000
b11 "
b1 "
b101 !
b1101 !
b101 "
b1111 !
1B
1A
1?
1>
0=
1<
1)
03
18
07
06
15
04
19
08
1%
0&
16
1:
0'
0%
1&
1$
#410000
b1101 "
b1111 "
b111 !
b101 !
0A
0?
1=
1;
0)
#420000
b1 !
b111 "
b101 "
b11 !
0=
0;
1A
0@
1)
09
18
06
0:
1%
0&
0$
#430000
b100 "
b0 "
b1011 !
b1001 !
0A
1?
0>
0<
0)
05
14
19
08
13
12
17
16
06
1:
04
09
18
1'
0%
1(
1&
0:
0&
1$
0'
1%
0$
#440000
b1000 !
b1100 !
b1000 "
b1100 "
b1110 !
1<
1;
0B
1A
1@
1)
07
19
08
02
14
18
1:
0%
0(
1'
1%
1$
#450000
b1110 "
b1111 "
b110 !
b111 !
1B
0?
1>
1=
0)
03
08
15
04
14
16
0%
0'
1'
1&
#460000
b111 "
b101 !
b101 "
b100 "
b100 !
0B
0A
0>
0=
0;
1)
13
05
09
18
04
06
0:
1%
0'
0&
0$
#470000
b0 !
b0 "
b1000 !
b1000 "
b1010 !
b1011 !
0<
1;
1B
1A
0@
1?
0)
17
19
12
14
08
1:
1(
1'
0%
1$
#480000
b1010 "
b1011 "
b1111 "
b111 "
b1001 !
0A
1>
1=
1<
0;
1)
03
02
16
09
18
15
04
0:
0(
1&
1%
07
06
0'
0$
19
08
0&
1:
0%
1$
#490000
b1101 !
b101 !
b100 !
b101 "
b1 "
0=
0<
0B
1@
0?
0)
05
14
13
12
09
18
17
16
04
0:
1'
1(
1%
08
1&
0'
0$
0%
#500000
b0 "
b110 !
b10 !
b1010 !
b10 "
b110 "
1A
0@
1?
0>
1=
1<
1)
15
18
02
07
06
1%
0(
19
08
0&
1:
0%
1$
#510000
b1011 !
b1111 !
b111 !
1B
1@
0?
0)
12
16
09
18
0:
1(
1&
1%
0$
#520000
b111 "
b101 !
b101 "
b1 "
b100 !
b0 !
0B
0A
0@
1>
0=
0<
1)
05
17
06
08
0&
0%
#530000
b0 "
b10 "
0>
1=
0)
02
14
0(
1'
#540000
b1000 !
b1010 !
1A
1?
1)
15
04
18
16
0'
1%
1&
#550000
b1011 !
b0 "
b11 !
0=
1B
0?
0)
05
14
12
08
06
1'
1(
0%
0&
#560000
b1000 "
b111 !
b1001 "
b110 !
b1110 !
0B
1@
1?
1>
1;
1)
16
19
1:
1&
1$
#570000
b1100 !
b1011 "
b1000 !
b1001 !
1=
1B
0A
0@
0)
03
02
06
15
04
0(
0&
16
0'
1&
#580000
b1010 "
b1011 !
b1000 "
b1010 !
0B
1A
0>
0=
1)
13
05
14
06
1'
0&
#590000
b1100 "
b1000 !
b1001 !
1B
0A
1<
0)
12
04
16
1(
0'
1&
#600000
b1 !
b101 !
b1110 "
1=
1@
0?
1)
14
07
06
09
18
19
08
0:
1'
0&
1%
1:
0%
0$
1$
#610000
b110 "
b111 "
b11 "
b1101 !
b1001 !
0@
1?
1>
0<
0;
0)
17
03
02
09
18
15
04
0(
0:
16
1%
0'
0$
1&
#620000
b1011 !
b1 "
b1001 "
b1101 "
b11 !
b111 !
0=
1<
1;
1A
1@
0?
1)
07
19
08
1:
0%
1$
#630000
b1100 "
b1110 "
b110 "
b10 "
b1111 !
1?
0>
1=
0<
0;
0)
13
12
14
06
04
1(
1'
0&
0'
#640000
b1110 !
b1100 !
b1000 !
b11 "
b1011 "
b1111 "
1>
1<
1;
0B
0A
0@
1)
18
05
14
17
16
1%
1'
08
1&
0%
#650000
b1101 "
b0 !
b1 !
b11 !
b1100 "
b100 "
1B
1A
0?
0>
0=
0;
0)
09
0:
0$
#660000
b110 "
b1 !
b111 "
0A
1>
1=
1)
03
02
15
04
0(
07
06
0'
18
0&
1%
#670000
b1001 !
b1111 "
b1101 "
b1011 !
0=
1;
1A
1?
0)
19
1:
1$
#680000
b1001 "
b11 !
b1 !
0A
0?
0<
1)
05
14
08
17
16
06
09
18
1'
0%
1&
0:
0&
1%
0$
#690000
b101 !
b1 "
0;
1@
0)
08
16
0%
1&
#700000
b101 "
b1101 !
b1111 !
1A
1?
1<
1)
15
04
18
07
06
16
19
08
0'
1%
0&
1:
1&
0%
1$
#710000
b1110 !
b1010 !
b1 "
b10 !
0<
0B
0@
0?
0)
17
13
12
09
18
08
05
14
0:
1(
1%
06
0%
1'
0$
0&
#720000
b0 "
b10 "
b110 !
1@
0>
1=
1)
16
02
15
04
07
06
1&
0(
0'
18
0&
1%
#730000
b100 !
b101 !
b110 "
b1101 !
b111 "
b101 "
b1001 !
1>
0=
1<
1B
0A
0@
1?
0)
03
05
19
08
14
17
16
1:
0%
09
18
1'
1&
1$
0:
1%
0$
#740000
b1101 "
b1001 "
b1000 "
b1010 "
0>
1=
0<
1;
1)
13
12
15
04
06
19
08
05
14
16
1:
1(
0'
0&
0%
06
1'
1&
1$
0&
#750000
b1011 !
b11 !
b1110 "
1<
1A
0?
0)
16
15
04
09
18
07
06
0:
1&
0'
1%
19
08
0&
0$
1:
0%
1$
#760000
b10 !
b110 !
b1111 "
b1101 "
b1110 !
b1001 "
1>
0=
0<
0B
1@
1?
1)
05
14
18
17
16
1'
1%
08
1&
0%
#770000
b1 "
b1111 !
b1011 !
b11 "
b11 !
b111 "
1B
0@
0?
1=
1<
0;
0)
03
02
09
15
04
14
0:
07
06
0(
0'
18
1'
0$
0&
1%
#780000
b1 !
b110 "
b101 !
b100 "
b0 "
0>
0=
0<
0A
1@
1)
13
12
05
04
17
16
1(
08
0'
1&
0%
#790000
b111 !
b11 !
b10 "
b110 "
1=
1<
1A
0@
0)
15
07
06
18
0&
1%
#800000
b1110 "
b10 !
b0 !
b100 !
b1100 "
0B
0A
1@
0=
1;
1)
02
05
16
19
08
06
1:
0(
1&
0%
0&
1$
#810000
b1100 !
b1101 "
b1110 !
b1010 !
1>
1A
0@
1?
0)
12
14
17
16
18
08
1(
1'
1&
1%
0%
#820000
b1001 "
b1011 !
b1011 "
b11 !
1B
0?
1=
0<
1)
03
02
09
18
15
04
06
14
0:
16
0(
1%
0'
0&
1'
0$
1&
#830000
b11 "
b10 "
b1 !
b0 !
b1000 !
0B
0A
1?
0>
0;
0)
13
04
05
14
0'
06
1'
0&
#840000
b11 "
b1010 !
b10 !
1A
0?
1>
1)
15
04
08
12
16
0'
0%
1(
1&
#850000
b1 "
b0 "
b0 !
b1000 !
0A
1?
0>
0=
0)
05
18
02
06
1%
0(
0&
#860000
b1100 !
b1101 !
b10 "
b11 "
b1111 !
1>
1=
1B
1A
1@
1)
03
15
16
14
07
06
1&
19
08
1'
0&
1:
0%
1$
#870000
b111 "
b1110 !
b110 "
0B
0>
1<
0)
13
16
04
1&
0'
#880000
b1110 "
1;
1)
18
1%
#890000
b110 !
b10 !
b0 !
b1010 "
0<
0A
0@
0?
0)
17
05
14
08
09
18
06
1'
0%
0:
1%
0&
0$
#900000
b1011 "
b1000 !
b1010 !
b1111 "
1A
1?
1>
1<
1)
15
04
19
08
12
16
07
06
1:
0'
0%
1(
1&
18
0&
1$
1%
#910000
b1101 "
b1100 "
b1000 "
0>
0=
0<
0)
02
05
14
17
16
06
08
0(
1'
1&
0&
0%
#920000
b0 "
b10 "
b110 "
1=
1<
0;
1)
15
04
16
09
18
07
06
0:
0'
1&
1%
19
08
0&
0$
1:
0%
1$
#930000
b1011 !
b111 "
b1111 "
b1101 "
1>
0=
1;
1B
0)
03
05
14
18
15
04
17
16
1'
1%
07
06
08
0'
1&
18
0&
0%
1%
#940000
b11 !
b1 !
b1001 "
b0 !
b1000 "
b0 "
0>
0<
0;
0B
0A
0?
1)
13
17
16
09
05
14
04
08
0:
06
1&
1'
0'
0%
0$
0&
#950000
b100 !
b10 "
b110 "
b111 "
1>
1=
1<
1@
0)
12
14
07
18
1(
1'
1%
#960000
b110 !
b1111 "
b10 !
b1101 "
0=
1;
1A
0@
1)
19
08
17
16
1:
09
18
0%
1&
0:
1$
1%
0$
#970000
b1010 !
b1011 !
b1100 "
b1001 !
b100 "
b1101 !
b110 "
0>
1=
0;
1B
0A
1@
1?
0)
07
06
19
08
0&
1:
0%
1$
#980000
b10 "
b11 "
b1011 "
b1001 "
1>
0=
0<
1;
1)
03
02
04
17
16
18
14
08
0(
0'
1&
1%
1'
0%
#990000
b1001 !
b1000 "
0>
0@
0)
13
12
06
04
1(
0&
0'
